…
WEEKLY VARIABLES ( 9  total):
- ICSA (19.9% complete)
- CCSA (19.8% complete)
- WM2NS (19.4% complete)
- WTREGEN (20% complete)
- WRESBAL (20% complete)
- NFCI (19.9% complete)
- NFCICREDIT (19.9% complete)
- NFCILEVERAGE (19.8% complete)
- NFCIRISK (19.9% complete)

COMBINED DATASET COMPLETENESS:
# A tibble: 39 × 2
   variable     completeness_pct
   <chr>                   <dbl>
 1 WTREGEN                 100  
 2 WRESBAL                 100  
 3 ICSA                     99.9
 4 CCSA                     99.9
 5 NFCI                     99.7
 6 NFCICREDIT               99.7
 7 NFCILEVERAGE             99.7
 8 NFCIRISK                 99.7
 9 WM2NS                    99.6
10 BAMLH0A0HYM2             98.7
# ℹ 29 more rows
# ℹ Use `print(n = ...)` to see more rows
…
